Project_dataclean
…
diab_eye_state |>
  count(year_start, sort = TRUE)

## # A tibble: 2 × 2
##   year_start     n
##        <dbl> <int>
## 1       2021    48
## 2       2023    46

diab_eye_state |>
  count(state_abbr, sort = TRUE)

## # A tibble: 48 × 2
##    state_abbr     n
##    <chr>      <int>
##  1 AK             2
##  2 AL             2
##  3 AR             2
##  4 AZ             2
##  5 CA             2
##  6 CO             2
##  7 CT             2
##  8 FL             2
##  9 GA             2
## 10 IA             2
## # ℹ 38 more rows
…
